a3_task3_satie_airame.Rmd
…
Create summary table of total number purple urchins observed by site and year_new.

purple_urchins_stats <- purple_urchins %>%
  count(site,year_new)
purple_urchins_stats

## # A tibble: 61 x 3
##    site  year_new     n
##    <chr>    <dbl> <int>
##  1 AQUE      2008    67
##  2 AQUE      2009   926
##  3 AQUE      2010   921
##  4 AQUE      2011   887
##  5 AQUE      2012   764
##  6 AQUE      2013   434
##  7 AQUE      2014   410
##  8 AQUE      2015   400
##  9 AQUE      2016   342
## 10 AQUE      2017   406
## #  with 51 more rows
…
